{
    "_links": {
        "type": {
            "href": "http:\/\/drupal.org\/rest\/type\/node\/page"
        }
    },
    "uuid": [
        {
            "value": "54092f07-2cf3-4261-87db-946c3bb512ce"
        }
    ],
    "langcode": [
        {
            "value": "en",
            "lang": "en"
        }
    ],
    "type": [
        {
            "target_id": "page"
        }
    ],
    "revision_timestamp": [
        {
            "value": "2019-07-11T15:32:44+00:00",
            "format": "Y-m-d\\TH:i:sP"
        }
    ],
    "_embedded": {
        "http:\/\/drupal.org\/rest\/relation\/node\/page\/revision_uid": [
            {
                "_links": {
                    "type": {
                        "href": "http:\/\/drupal.org\/rest\/type\/user\/user"
                    }
                },
                "uuid": [
                    {
                        "value": "53f0d0d9-fa1d-4b02-8850-21bd5bcb3829"
                    }
                ]
            }
        ],
        "http:\/\/drupal.org\/rest\/relation\/node\/page\/uid": [
            {
                "_links": {
                    "type": {
                        "href": "http:\/\/drupal.org\/rest\/type\/user\/user"
                    }
                },
                "uuid": [
                    {
                        "value": "53f0d0d9-fa1d-4b02-8850-21bd5bcb3829"
                    }
                ],
                "lang": "en"
            }
        ],
        "http:\/\/drupal.org\/rest\/relation\/node\/page\/elements": [
            {
                "_links": {
                    "type": {
                        "href": "http:\/\/drupal.org\/rest\/type\/paragraph\/links"
                    }
                },
                "uuid": [
                    {
                        "value": "3be778d2-4068-4553-90d8-2bbe2be246ab"
                    }
                ],
                "target_revision_id": "405"
            }
        ],
        "http:\/\/drupal.org\/rest\/relation\/node\/page\/intro": [
            {
                "_links": {
                    "type": {
                        "href": "http:\/\/drupal.org\/rest\/type\/paragraph\/intro"
                    }
                },
                "uuid": [
                    {
                        "value": "27337a4f-ed87-48f0-819a-488f96ce9578"
                    }
                ],
                "target_revision_id": "406"
            }
        ]
    },
    "revision_log": [
        {
            "value": "Updated the Elements and Intro fields"
        }
    ],
    "status": [
        {
            "value": true,
            "lang": "en"
        }
    ],
    "title": [
        {
            "value": "Links",
            "lang": "en"
        }
    ],
    "created": [
        {
            "value": "2019-06-16T16:55:49+00:00",
            "lang": "en",
            "format": "Y-m-d\\TH:i:sP"
        }
    ],
    "changed": [
        {
            "value": "2019-07-11T15:32:44+00:00",
            "lang": "en",
            "format": "Y-m-d\\TH:i:sP"
        }
    ],
    "promote": [
        {
            "value": false
        }
    ],
    "sticky": [
        {
            "value": false,
            "lang": "en"
        }
    ],
    "default_langcode": [
        {
            "value": true,
            "lang": "en"
        }
    ],
    "path": [
        {
            "alias": "\/elements\/links"
        }
    ]
}
