{
    "_links": {
        "type": {
            "href": "http:\/\/drupal.org\/rest\/type\/node\/page"
        }
    },
    "uuid": [
        {
            "value": "81d45ec6-a352-40d1-8a69-106eac7fafdf"
        }
    ],
    "langcode": [
        {
            "value": "en",
            "lang": "en"
        }
    ],
    "type": [
        {
            "target_id": "page"
        }
    ],
    "revision_timestamp": [
        {
            "value": "2019-07-11T19:39:21+00:00",
            "format": "Y-m-d\\TH:i:sP"
        }
    ],
    "_embedded": {
        "http:\/\/drupal.org\/rest\/relation\/node\/page\/revision_uid": [
            {
                "_links": {
                    "type": {
                        "href": "http:\/\/drupal.org\/rest\/type\/user\/user"
                    }
                },
                "uuid": [
                    {
                        "value": "53f0d0d9-fa1d-4b02-8850-21bd5bcb3829"
                    }
                ]
            }
        ],
        "http:\/\/drupal.org\/rest\/relation\/node\/page\/uid": [
            {
                "_links": {
                    "type": {
                        "href": "http:\/\/drupal.org\/rest\/type\/user\/user"
                    }
                },
                "uuid": [
                    {
                        "value": "53f0d0d9-fa1d-4b02-8850-21bd5bcb3829"
                    }
                ],
                "lang": "en"
            }
        ],
        "http:\/\/drupal.org\/rest\/relation\/node\/page\/elements": [
            {
                "_links": {
                    "type": {
                        "href": "http:\/\/drupal.org\/rest\/type\/paragraph\/quote"
                    }
                },
                "uuid": [
                    {
                        "value": "c6fe65cb-7337-46d7-9d61-701fa111349e"
                    }
                ],
                "target_revision_id": "413"
            }
        ],
        "http:\/\/drupal.org\/rest\/relation\/node\/page\/intro": [
            {
                "_links": {
                    "type": {
                        "href": "http:\/\/drupal.org\/rest\/type\/paragraph\/intro"
                    }
                },
                "uuid": [
                    {
                        "value": "c7c388b7-e052-49ab-a612-733be61ec40e"
                    }
                ],
                "target_revision_id": "414"
            }
        ]
    },
    "revision_log": [
        {
            "value": "Updated the Elements and Intro fields"
        }
    ],
    "status": [
        {
            "value": true,
            "lang": "en"
        }
    ],
    "title": [
        {
            "value": "Quote",
            "lang": "en"
        }
    ],
    "created": [
        {
            "value": "2019-06-16T16:31:05+00:00",
            "lang": "en",
            "format": "Y-m-d\\TH:i:sP"
        }
    ],
    "changed": [
        {
            "value": "2019-07-11T19:39:21+00:00",
            "lang": "en",
            "format": "Y-m-d\\TH:i:sP"
        }
    ],
    "promote": [
        {
            "value": false
        }
    ],
    "sticky": [
        {
            "value": false,
            "lang": "en"
        }
    ],
    "default_langcode": [
        {
            "value": true,
            "lang": "en"
        }
    ],
    "path": [
        {
            "alias": "\/elements\/quote"
        }
    ]
}
