{
    "_links": {
        "type": {
            "href": "http:\/\/drupal.org\/rest\/type\/file\/file"
        }
    },
    "uuid": [
        {
            "value": "916cad90-87b7-41ca-a1ab-fed61c65ff10"
        }
    ],
    "langcode": [
        {
            "value": "en"
        }
    ],
    "_embedded": {
        "http:\/\/drupal.org\/rest\/relation\/file\/file\/uid": [
            {
                "_links": {
                    "type": {
                        "href": "http:\/\/drupal.org\/rest\/type\/user\/user"
                    }
                },
                "uuid": [
                    {
                        "value": "53f0d0d9-fa1d-4b02-8850-21bd5bcb3829"
                    }
                ]
            }
        ]
    },
    "filename": [
        {
            "value": "kym-ellis-662656-unsplash.jpg"
        }
    ],
    "uri": [
        {
            "value": "public:\/\/2019-06\/kym-ellis-662656-unsplash_1_1.jpg",
            "url": "\/files\/2019-06\/kym-ellis-662656-unsplash_1_1.jpg"
        }
    ],
    "filemime": [
        {
            "value": "image\/jpeg"
        }
    ],
    "filesize": [
        {
            "value": 0
        }
    ],
    "status": [
        {
            "value": true
        }
    ],
    "created": [
        {
            "value": "2019-06-16T16:49:35+00:00",
            "format": "Y-m-d\\TH:i:sP"
        }
    ],
    "changed": [
        {
            "value": "2019-06-16T16:49:41+00:00",
            "format": "Y-m-d\\TH:i:sP"
        }
    ],
    "data": [
        {
            "value": ""
        }
    ]
}
