{
    "_links": {
        "type": {
            "href": "http:\/\/drupal.org\/rest\/type\/paragraph\/intro"
        }
    },
    "uuid": [
        {
            "value": "27337a4f-ed87-48f0-819a-488f96ce9578"
        }
    ],
    "langcode": [
        {
            "value": "en",
            "lang": "en"
        }
    ],
    "type": [
        {
            "target_id": "intro"
        }
    ],
    "status": [
        {
            "value": true,
            "lang": "en"
        }
    ],
    "created": [
        {
            "value": "2019-06-16T16:55:57+00:00",
            "lang": "en",
            "format": "Y-m-d\\TH:i:sP"
        }
    ],
    "parent_type": [
        {
            "value": "node"
        }
    ],
    "parent_field_name": [
        {
            "value": "intro"
        }
    ],
    "behavior_settings": [
        {
            "value": {
                "intro": {
                    "style": "hero"
                }
            }
        }
    ],
    "default_langcode": [
        {
            "value": true,
            "lang": "en"
        }
    ],
    "text": [
        {
            "value": "Links element.",
            "format": "restricted_html",
            "processed": "<p>Links element.<\/p>\n",
            "lang": "en"
        }
    ],
    "title": [
        {
            "value": "Links"
        }
    ]
}
