{
    "_links": {
        "type": {
            "href": "http:\/\/drupal.org\/rest\/type\/paragraph\/text"
        }
    },
    "uuid": [
        {
            "value": "dfb1c1ca-7f30-48bc-b41b-d3ebba5277c3"
        }
    ],
    "langcode": [
        {
            "value": "en",
            "lang": "en"
        }
    ],
    "type": [
        {
            "target_id": "text"
        }
    ],
    "status": [
        {
            "value": true,
            "lang": "en"
        }
    ],
    "created": [
        {
            "value": "2019-06-04T20:21:47+00:00",
            "lang": "en",
            "format": "Y-m-d\\TH:i:sP"
        }
    ],
    "parent_type": [
        {
            "value": "node"
        }
    ],
    "parent_field_name": [
        {
            "value": "elements"
        }
    ],
    "behavior_settings": [
        {
            "value": {
                "text": {
                    "style": "one_column"
                }
            }
        }
    ],
    "default_langcode": [
        {
            "value": true,
            "lang": "en"
        }
    ],
    "revision_translation_affected": [
        {
            "value": true,
            "lang": "en"
        }
    ],
    "text": [
        {
            "value": "<p>asdfasdf<\/p>\r\n",
            "format": "basic_html",
            "processed": "<p>asdfasdf<\/p>"
        }
    ]
}
