{
    "_links": {
        "type": {
            "href": "http:\/\/drupal.org\/rest\/type\/paragraph\/media_text"
        }
    },
    "uuid": [
        {
            "value": "103f7f4a-5d48-436c-993e-b752271bbe80"
        }
    ],
    "langcode": [
        {
            "value": "en",
            "lang": "en"
        }
    ],
    "type": [
        {
            "target_id": "media_text"
        }
    ],
    "status": [
        {
            "value": true,
            "lang": "en"
        }
    ],
    "created": [
        {
            "value": "2019-06-04T20:17:27+00:00",
            "lang": "en",
            "format": "Y-m-d\\TH:i:sP"
        }
    ],
    "parent_type": [
        {
            "value": "node"
        }
    ],
    "parent_field_name": [
        {
            "value": "elements"
        }
    ],
    "behavior_settings": [
        {
            "value": {
                "media_text": {
                    "style": "big_left"
                }
            }
        }
    ],
    "default_langcode": [
        {
            "value": true,
            "lang": "en"
        }
    ],
    "revision_translation_affected": [
        {
            "value": true,
            "lang": "en"
        }
    ],
    "text": [
        {
            "value": "<p>asdf<\/p>\r\n",
            "format": "basic_html",
            "processed": "<p>asdf<\/p>",
            "lang": "en"
        }
    ]
}
