{
    "_links": {
        "type": {
            "href": "http:\/\/drupal.org\/rest\/type\/paragraph\/gallery"
        }
    },
    "uuid": [
        {
            "value": "0086c25d-58fa-4cf4-9a64-c8d6f053d92b"
        }
    ],
    "langcode": [
        {
            "value": "en",
            "lang": "en"
        }
    ],
    "type": [
        {
            "target_id": "gallery"
        }
    ],
    "status": [
        {
            "value": true,
            "lang": "en"
        }
    ],
    "created": [
        {
            "value": "2019-06-04T20:14:44+00:00",
            "lang": "en",
            "format": "Y-m-d\\TH:i:sP"
        }
    ],
    "parent_type": [
        {
            "value": "node"
        }
    ],
    "parent_field_name": [
        {
            "value": "elements"
        }
    ],
    "behavior_settings": [
        {
            "value": {
                "gallery": {
                    "style": "tiles"
                }
            }
        }
    ],
    "default_langcode": [
        {
            "value": true,
            "lang": "en"
        }
    ],
    "revision_translation_affected": [
        {
            "value": true,
            "lang": "en"
        }
    ]
}
