{
    "_links": {
        "type": {
            "href": "http:\/\/drupal.org\/rest\/type\/paragraph\/links"
        }
    },
    "uuid": [
        {
            "value": "60d00c85-38f5-4949-b110-dd315c09d3be"
        }
    ],
    "langcode": [
        {
            "value": "en",
            "lang": "en"
        }
    ],
    "type": [
        {
            "target_id": "links"
        }
    ],
    "status": [
        {
            "value": true,
            "lang": "en"
        }
    ],
    "created": [
        {
            "value": "2019-07-03T20:29:28+00:00",
            "lang": "en",
            "format": "Y-m-d\\TH:i:sP"
        }
    ],
    "parent_type": [
        {
            "value": "node"
        }
    ],
    "parent_field_name": [
        {
            "value": "elements"
        }
    ],
    "behavior_settings": [
        {
            "value": []
        }
    ],
    "default_langcode": [
        {
            "value": true,
            "lang": "en"
        }
    ],
    "links": [
        {
            "uri": "internal:\/elements\/text",
            "title": "Mattis Tortor Adipiscing",
            "options": []
        },
        {
            "uri": "internal:\/elements\/media_text",
            "title": "Cursus Fusce",
            "options": []
        },
        {
            "uri": "internal:\/elements\/gallery",
            "title": "Etiam Purus Sit",
            "options": []
        }
    ]
}
