{
    "_links": {
        "type": {
            "href": "http:\/\/drupal.org\/rest\/type\/paragraph\/text"
        }
    },
    "uuid": [
        {
            "value": "bcc6f55d-e1f5-4167-b1fe-5c390f4c9d93"
        }
    ],
    "langcode": [
        {
            "value": "en",
            "lang": "en"
        }
    ],
    "type": [
        {
            "target_id": "text"
        }
    ],
    "status": [
        {
            "value": true,
            "lang": "en"
        }
    ],
    "created": [
        {
            "value": "2019-06-03T23:45:35+00:00",
            "lang": "en",
            "format": "Y-m-d\\TH:i:sP"
        }
    ],
    "parent_type": [
        {
            "value": "node"
        }
    ],
    "parent_field_name": [
        {
            "value": "elements"
        }
    ],
    "behavior_settings": [
        {
            "value": []
        }
    ],
    "default_langcode": [
        {
            "value": true,
            "lang": "en"
        }
    ],
    "revision_translation_affected": [
        {
            "value": true,
            "lang": "en"
        }
    ],
    "text": [
        {
            "value": "<p>halle leude, was geht?<\/p>\r\n",
            "format": "basic_html",
            "processed": "<p>halle leude, was geht?<\/p>"
        }
    ],
    "title": [
        {
            "value": "asdfasdf",
            "lang": "en"
        }
    ]
}
