<svg xmlns="http://www.w3.org/2000/svg" width="170" height="131" viewBox="0 0 170 131">
    <g fill="none" fill-rule="evenodd">
        <path fill="#B2B2B2" d="M25 41h60v36.111H25z"/>
        <path fill="#FFF" d="M74 45h71v32H74z"/>
        <g stroke="#666" stroke-linecap="round" stroke-linejoin="round">
            <path d="M87.312 56.5h44.376M87.312 61.5h44.376M87.312 66.5h23.667"/>
        </g>
    </g>
</svg>
