<svg xmlns="http://www.w3.org/2000/svg" width="170" height="131" viewBox="0 0 170 131">
    <g fill="none" fill-rule="evenodd">
        <path fill="#FFF" d="M25 41h120v70H25z"/>
        <g stroke="#666" stroke-linecap="round" stroke-linejoin="round">
            <path d="M49.375 68.5h71.25M49.375 73.5h71.25M49.375 78.5h38"/>
        </g>
        <path fill="#B2B2B2" d="M25 58.276L145 51v43.387L25 87.11z"/>
        <g stroke="#FFF" stroke-linecap="square">
            <path d="M25.5 65.25l50-1.75M25.5 70.25h44M25.5 75.25l32 1.25M25.5 80.25l41 2.25"/>
        </g>
    </g>
</svg>
