{
    "_links": {
        "type": {
            "href": "http:\/\/drupal.org\/rest\/type\/media\/image"
        }
    },
    "uuid": [
        {
            "value": "222e70b8-187b-49b6-9436-61452423dc55"
        }
    ],
    "langcode": [
        {
            "value": "en",
            "lang": "en"
        }
    ],
    "bundle": [
        {
            "target_id": "image"
        }
    ],
    "revision_created": [
        {
            "value": "2019-06-26T22:39:07+00:00",
            "format": "Y-m-d\\TH:i:sP"
        }
    ],
    "revision_log_message": [
        {
            "value": "Created new Image"
        }
    ],
    "status": [
        {
            "value": true,
            "lang": "en"
        }
    ],
    "_embedded": {
        "http:\/\/drupal.org\/rest\/relation\/media\/image\/uid": [
            {
                "_links": {
                    "type": {
                        "href": "http:\/\/drupal.org\/rest\/type\/user\/user"
                    }
                },
                "uuid": [
                    {
                        "value": "53f0d0d9-fa1d-4b02-8850-21bd5bcb3829"
                    }
                ],
                "lang": "en"
            }
        ],
        "http:\/\/drupal.org\/rest\/relation\/media\/image\/thumbnail": [
            {
                "_links": {
                    "type": {
                        "href": "http:\/\/drupal.org\/rest\/type\/file\/file"
                    }
                },
                "uuid": [
                    {
                        "value": "c80bf227-9222-4f54-8707-9d2f003cf577"
                    }
                ],
                "lang": "en",
                "alt": "Beach",
                "title": null,
                "width": "3264",
                "height": "2448"
            }
        ],
        "http:\/\/drupal.org\/rest\/relation\/media\/image\/image": [
            {
                "_links": {
                    "type": {
                        "href": "http:\/\/drupal.org\/rest\/type\/file\/file"
                    }
                },
                "uuid": [
                    {
                        "value": "c80bf227-9222-4f54-8707-9d2f003cf577"
                    }
                ],
                "lang": "en",
                "alt": "Beach",
                "title": "",
                "width": "3264",
                "height": "2448"
            }
        ]
    },
    "name": [
        {
            "value": "mickey-o-neil-36549-unsplash.jpg",
            "lang": "en"
        }
    ],
    "created": [
        {
            "value": "2019-06-25T16:31:22+00:00",
            "lang": "en",
            "format": "Y-m-d\\TH:i:sP"
        }
    ],
    "changed": [
        {
            "value": "2019-06-25T16:31:22+00:00",
            "lang": "en",
            "format": "Y-m-d\\TH:i:sP"
        }
    ],
    "default_langcode": [
        {
            "value": true,
            "lang": "en"
        }
    ],
    "revision_translation_affected": [
        {
            "value": true,
            "lang": "en"
        }
    ],
    "path": [
        {
            "alias": null,
            "pid": null,
            "langcode": "en",
            "lang": "en"
        }
    ]
}
