<svg xmlns="http://www.w3.org/2000/svg" width="170" height="131" viewBox="0 0 170 131">
    <g fill="none" fill-rule="evenodd">
        <path fill="#FFF" d="M25 41h120v70H25z"/>
        <g stroke="#666" stroke-linecap="round" stroke-linejoin="round">
            <path d="M49.375 68.5h71.25M49.375 73.5h71.25M49.375 78.5h38"/>
        </g>
    </g>
</svg>
