<svg xmlns="http://www.w3.org/2000/svg" width="170" height="131" viewBox="0 0 170 131">
    <g fill="none" fill-rule="evenodd">
        <path fill="#FFF" d="M25 41h120v70H25z"/>
        <path stroke="#7F7F7F" d="M25.5 44.5h119v38h-119z"/>
        <path stroke="#7F7F7F" stroke-linecap="square" d="M34.5 48.5h29"/>
        <path stroke="#666" stroke-linecap="round" stroke-linejoin="round" d="M140.563 50.188l-2.063-2.063-2.062 2.063"/>
        <path stroke="#7F7F7F" d="M25.5 84.5h119v10h-119z"/>
        <path stroke="#7F7F7F" stroke-linecap="square" d="M34.5 89.5h29"/>
        <path stroke="#666" stroke-linecap="round" stroke-linejoin="round" d="M136.437 88.812l2.063 2.063 2.062-2.063"/>
        <g>
            <path stroke="#7F7F7F" d="M25.5 96.5h119v10h-119z"/>
            <path stroke="#7F7F7F" stroke-linecap="square" d="M34.5 101.5h29"/>
            <path stroke="#666" stroke-linecap="round" stroke-linejoin="round" d="M136.437 100.812l2.063 2.063 2.062-2.063"/>
        </g>
        <g stroke="#666" stroke-linecap="round" stroke-linejoin="round">
            <path d="M43.563 62.312h61.875M43.563 65.854h61.875M43.563 69.396h33"/>
        </g>
    </g>
</svg>
