<svg xmlns="http://www.w3.org/2000/svg" width="170" height="131" viewBox="0 0 170 131">
    <g fill="none" fill-rule="evenodd">
        <path fill="#B2B2B2" d="M145 41H25v52h120z"/>
        <path fill="#D9D9D9" d="M122 62H47v39h75z"/>
    </g>
</svg>
